{
  "idm": {
    "comp": {
      "selectable": {
        "button-buttongroup": {
          "color": {
            "active": {
              "bg": {
                "value": "{idm.gran.color.selectable.primary.default}",
                "type": "color"
              },
              "border": {
                "value": "{idm.gran.color.selectable.secondary.default}",
                "type": "color"
              },
              "fg": {
                "value": "{idm.gran.color.selectable.primary.fg}",
                "type": "color"
              }
            },
            "inactive": {
              "border": {
                "value": "{idm.gran.color.selectable.secondary.default}",
                "type": "color"
              },
              "fg": {
                "value": "{idm.gran.color.selectable.secondary.default}",
                "type": "color"
              }
            },
            "focused": {
              "fg": {
                "value": "{idm.gran.color.selectable.secondary.hover}",
                "type": "color"
              },
              "border": {
                "value": "{idm.gran.color.selectable.secondary.default}",
                "type": "color"
              }
            },
            "hover": {
              "fg": {
                "value": "{idm.gran.color.selectable.secondary.hover}",
                "type": "color"
              },
              "border": {
                "value": "{idm.gran.color.selectable.secondary.default}",
                "type": "color"
              }
            },
            "disabled": {
              "border": {
                "value": "{idm.gran.color.selectable.secondary.default}",
                "type": "color"
              },
              "fg": {
                "value": "{idm.gran.color.selectable.disabled.primary-bg}",
                "type": "color"
              }
            }
          },
          "borderwidth": {
            "value": "{idm.sem.borderwidth.selectable.md}",
            "type": "borderWidth"
          }
        },
        "buttongroup": {
          "container": {
            "borderradius": {
              "value": "{idm.sem.borderradius.selectable.xs}",
              "type": "borderRadius"
            },
            "borderwidth": {
              "value": "{idm.sem.borderwidth.selectable.md}",
              "type": "borderWidth"
            }
          },
          "button": {
            "typography": {
              "lg": {
                "value": "{idm.core.typography.specialbutton.lg}",
                "type": "typography"
              },
              "md": {
                "value": "{idm.core.typography.specialbutton.md}",
                "type": "typography"
              }
            }
          }
        }
      }
    }
  }
}